\relax 
\providecommand\hyper@newdestlabel[2]{}
\providecommand\HyperFirstAtBeginDocument{\AtBeginDocument}
\HyperFirstAtBeginDocument{\ifx\hyper@anchor\@undefined
\global\let\oldcontentsline\contentsline
\gdef\contentsline#1#2#3#4{\oldcontentsline{#1}{#2}{#3}}
\global\let\oldnewlabel\newlabel
\gdef\newlabel#1#2{\newlabelxx{#1}#2}
\gdef\newlabelxx#1#2#3#4#5#6{\oldnewlabel{#1}{{#2}{#3}}}
\AtEndDocument{\ifx\hyper@anchor\@undefined
\let\contentsline\oldcontentsline
\let\newlabel\oldnewlabel
\fi}
\fi}
\global\let\hyper@last\relax 
\gdef\HyperFirstAtBeginDocument#1{#1}
\providecommand\HyField@AuxAddToFields[1]{}
\providecommand\HyField@AuxAddToCoFields[2]{}
\providecommand \oddpage@label [2]{}
\@writefile{toc}{\contentsline {section}{\numberline {1}Úvod}{1}{section.1}\protected@file@percent }
\newlabel{uxfavod}{{1}{1}{Úvod}{section.1}{}}
\@writefile{toc}{\contentsline {section}{\numberline {2}Měření 1}{1}{section.2}\protected@file@percent }
\newlabel{mux11bux159enuxed-1}{{2}{1}{Měření 1}{section.2}{}}
\@writefile{toc}{\contentsline {section}{\numberline {3}Měření 2}{11}{section.3}\protected@file@percent }
\newlabel{mux11bux159enuxed-2}{{3}{11}{Měření 2}{section.3}{}}
\@writefile{toc}{\contentsline {section}{\numberline {4}Závěr}{16}{section.4}\protected@file@percent }
\newlabel{zuxe1vux11br}{{4}{16}{Závěr}{section.4}{}}
\gdef \@abspage@last{16}
